540110020001005, W29
540110020001002, W29
540110020002006, W25
540110014001015, W27
540110014002033, W23
540110014003009, W23
540110021003010, W24
540110014003033, W25
540110014003032, W25
540110015001018, W29
540110015001026, W24
540110015001015, W29
540110020002038, W24
540110020001010, W29
540110015001000, W25
540110020001007, W24
540110020001004, W29
540110020002028, W24
540110021003008, W24
540110015001033, W24
540110015001028, W24
540110021003025, W25
540110021003006, W25
540110015001002, W29
540110015002017, W26
540110020001001, W25
540110020001000, W25
540110020002007, W25
540110020001015, W25
540110015002002, W27
540110014003008, W23
540110020002008, W25
540110021003009, W24
540110021003018, W24
540110015001006, W26
540110015001007, W26
540110020002030, W24
540110015001005, W27
540110015001036, W24
540110015002030, W26
540110014003012, W27
540110021003007, W24
540110015001004, W26
540110021003026, W25
540110015002016, W26
540110015001014, W29
540110014003004, W23
540110014002006, W23
540110014002036, W27
540110020002031, W24
540110015001013, W29
540110014002004, W23
540110014003010, W23
540110014002013, W27
540110014002032, W23
540110015002006, W27
540110015001017, W26
540110014002026, W23
540110020001008, W24
540110021003011, W24
540110014003017, W29
540110014003024, W25
540110015002001, W27
540110015001030, W24
540110014002005, W23
540110014001008, W27
540110015001035, W29
540110020002010, W25
540110014001006, W23
540110014002030, W23
540110014001016, W27
540110015001019, W24
540110015002019, W27
540110015002013, W26
540110015001032, W29
540110014001009, W27
540110015001011, W26
540110015002022, W26
540110014002022, W23
540110015002014, W26
540110014002009, W23
540110014002010, W23
540110014002025, W23
540110014001011, W27
540110014003025, W29
540110015001012, W27
540110014001000, W23
540110014002028, W23
540110014001005, W23
540110014001007, W23
540110014003013, W27
540110014002008, W23
540110014003028, W25
540110021003019, W25
540110015001029, W24
540110016001004, W26
540110014003027, W25
540110020002048, W24
540110014002002, W23
540110014002021, W23
540110020002005, W25
540110015002025, W27
540110014002012, W27
540110016001012, W26
540110014002029, W23
540110015002004, W27
540110015001020, W24
540110015002015, W26
540110014002031, W23
540110014002017, W27
540110014002027, W23
540110014002034, W23
540110014003005, W23
540110015002035, W26
540110016001001, W26
540110014003022, W23
540110014003023, W25
540110014002007, W23
540110014003007, W23
540110014003018, W27
540110014003011, W25
540110014003020, W27
540110014003026, W29
540110014003021, W27
540110014003030, W25
540110014002015, W27
540110014003016, W29
540110014002001, W23
540110014002016, W27
540110014003029, W29
540110015001025, W29
540110021003002, W25
540110015001034, W24
540110015002033, W26
540110015002027, W26
540110015001031, W29
540110014001012, W27
540110014002011, W23
540110015002009, W26
540110015001037, W29
540110015002010, W26
540110015002011, W26
540110015002021, W27
540110014001014, W27
540110015002000, W27
540110015002007, W27
540110015001008, W26
540110015002023, W26
540110015001001, W29
540110020001003, W29
540110020001011, W29
540110020001014, W29
540110020001017, W25
540110020001013, W29
540110020001012, W29
540110016001008, W26
540110020002004, W25
540110014002003, W23
540110014001013, W27
540110020002023, W24
540110014002023, W23
540110014002024, W23
540110014003006, W23
540110020002047, W24
540110014001003, W23
540110014001010, W23
540110014001002, W23
540110014002020, W27
540110016001011, W26
540110020002022, W24
540110020002011, W25
540110020001006, W25
540110020002013, W25
540110020002012, W25
540110020002027, W24
540110016001005, W26
540110014001004, W23
540110014002014, W23
540110015002029, W26
540110015002028, W26
540110015002005, W27
540110015001024, W25
540110014003019, W27
540110015002024, W26
540110020002024, W24
540110021003020, W25
540110015002026, W26
540110016001006, W26
540110015002018, W26
540110014003000, W27
540110016001013, W26
540110015001022, W25
540110015001009, W26
, W24
540110015001010, W26
