540110018005018, R24
540110020002003, R27
540110016001029, R24
540110018002005, R26
540110020002006, R27
540110018005011, R24
540110020002005, R27
540110018001005, R25
540110016001000, R29
540110018005014, R24
