540110015002006, W26
540110015001030, W29
540110015002001, W26
540110015001018, W26
540110020002031, W26
540110014002021, W27
540110015001019, W26
540110015001000, W29
540110014003004, W27
540110015001026, W29
540110014003023, W23
540110015002030, W27
540110015001020, W26
540110015001017, W27
