540110018001013, R29
540110018004008, R25
540110019001001, R23
540110016001017, R24
540110020002002, R26
540110020002009, R27
540110018003002, R25
540110019001007, R23
540110019001006, R23
540110019003002, R26
540110020002017, R27
540110019002012, R27
540110019002016, R23
540110018004001, R25
540110020002001, R26
540110020002000, R27
540110016001028, R25
540110019002014, R27
540110018004004, R25
540110001022013, R23
, R23
540110019002010, R27
540110020002021, R27
540110020002015, R27
540110019003001, R26
540110001022017, R23
540110019002005, R26
540110019002002, R26
540110019001008, R23
540110020002003, R26
540110020002016, R27
540110020002010, R27
540110019001003, R23
540110019003006, R26
540110019001004, R23
540110020002014, R27
540110019002009, R27
540110016001031, R25
540110018004012, R25
540110019003005, R26
540110018002002, R29
540110016001022, R24
540110018004005, R25
540110018002006, R29
540110018002000, R25
540110016001034, R25
540110016001027, R24
540110019003003, R26
540110018002005, R29
540110016001025, R24
540110018005011, R29
540110018004013, R25
540110016001021, R24
540110018005021, R24
540110019001009, R23
540110018002010, R29
540110016001032, R25
540110018005019, R29
540110016001035, R25
540110019003000, R26
540110018002003, R25
540110020002020, R27
540110016001024, R24
540110018005017, R24
540110018004009, R25
540110018005009, R29
540110016001030, R24
540110018001002, R29
540110018003003, R25
540110019002008, R26
540110018005008, R29
540110018005013, R24
540110018001014, R29
540110020002006, R25
540110001022015, R23
540110016001015, R24
540110016001026, R24
540110018005018, R29
540110016001019, R24
540110018004010, R25
540110018003000, R29
540110016001033, R25
540110018004011, R25
540110016001018, R24
540110018002004, R25
540110019002013, R23
540110018004007, R25
540110018004000, R24
540110018005007, R29
540110019001002, R23
540110018002009, R29
540110018001006, R25
540110016001012, R24
540110018004006, R25
540110018005010, R29
540110018005005, R24
540110016001011, R24
540110018004003, R25
540110018002008, R29
540110020002004, R27
540110016001016, R24
540110016001009, R24
540110016001036, R25
540110016001029, R25
540110016001000, R24
540110016001010, R24
540110018005012, R24
540110018005004, R24
540110018005006, R29
540110016001013, R24
540110016001020, R24
540110016001023, R24
540110018005016, R29
540110019002004, R26
540110018005002, R29
540110019003004, R26
540110020002005, R25
540110018004002, R25
540110019001000, R23
540110019001005, R23
540110018005020, R24
540110018001010, R25
540110019002011, R27
540110018001004, R29
540110018001005, R29
540110018002001, R25
540110018001017, R25
540110019002003, R26
540110018001011, R29
540110018003001, R25
540110019002018, R27
540110001022019, R23
540110018001012, R29
540110018001001, R29
540110018005003, R29
540110018001015, R29
540110018002007, R29
540110018002011, R29
540110018005014, R29
540110018005001, R29
540110020001000, R25
