540990051001044, M24
540990051001051, M24
540990051001045, M24
540990051001049, M24
540990051001040, M24
540110010002029, M29
540110010002010, M26
540110010002027, M29
540990051001042, M24
540110010003021, M26
540110010002026, M29
540110010003011, M25
540110010003022, M25
540110010002025, M29
540110010003012, M25
540990051001036, M24
540110010002033, M29
540110011002004, M27
540990052001018, M24
540110010003013, M25
