540110021002026, T24
540110013002004, T26
540110013002001, T26
540110012002020, T26
540110021002006, T25
540110012003019, T26
540110012003016, T26
540110109001051, T23
540110013002005, T29
540110109001044, T23
540110109002050, T23
540110012002013, T25
540110109002035, T23
540110021002032, T24
540110012002008, T25
540110021002031, T24
540110109002036, T23
540110012002009, T25
540110109002016, T23
540110012001014, T26
540110021002011, T24
540110109001053, T23
540110109001042, T23
540110021002013, T25
540110013002000, T29
