BlockID, Route
540990051001019, M25
540990051001017, M25
540110010003009, M25
540990051001023, M25
540990051001029, M25
540990051001025, M25
540990051001018, M25
540110010003008, M25
540110010003043, M25
540110010003041, M25
540990051001022, M25
540110010003040, M25
540990051001020, M25
540110010003042, M25
540990051001027, M25
540990051001056, M25
540990051001031, M25
540990051001030, M25
540990051001021, M25
540990051001034, M25
540110010001018, M25
540110010003044, M25
540110010003007, M25
540990051001016, M25
540990051001015, M25
540990051001037, M25
540110010003010, M25
540990051001028, M25
540990051001055, M25
540990051001053, M25
540990052001001, M25
540110010003036, M25
540110010003038, M25
540110009001011, M27
540110009001024, M27
540110011002001, M27
540110010003032, M27
540110011002015, M27
540110009002022, M27
540110009001003, M27
540110009001018, M27
540110011002010, M27
540110011002020, M27
540110009001015, M27
540110009001014, M27
540110011002025, M27
540110009001009, M27
540110009001012, M27
540110009001037, M27
540110011002016, M27
540110010002003, M27
540110009002016, M27
540110009001013, M27
540110009002023, M27
540110009002021, M27
540110009001026, M27
540110011002032, M27
540110011002008, M27
540110009001031, M27
540110009001029, M27
540110011002009, M27
540110011002012, M27
540110011002023, M27
540110011002022, M27
540110009001035, M27
540110010001001, M27
540110009002018, M27
540110009002017, M27
540110011002021, M27
540110009001016, M27
540110009002020, M27
540110009001028, M27
540110011002014, M27
540110009001027, M27
540110009001030, M27
540110009001010, M27
540110011002024, M27
540110011002013, M27
540110009002019, M27
540110009001036, M27
540110009001023, M27
540110009001020, M27
540110011002003, M27
540110011002005, M27
540110010002010, M27
540110010003021, M27
540110011002000, M27
540110011002002, M27
540110009002032, M27
540110009002039, M27
540110011002017, M27
540110011002033, M27
540110009001021, M27
540110011001014, M27
540110011002006, M27
540110011002004, M27
540110010002028, M27
540110010003020, M27
540110009002036, M23
540110011002028, M23
540110011001010, M23
540110011002055, M23
540110011002035, M23
540110011002043, M23
540110009002030, M23
540110009002035, M23
540110011002045, M23
540110009002034, M23
540110011002059, M23
540110011002052, M23
540110011002048, M23
540110009002028, M23
540110011001022, M23
540110011001002, M23
540110011002037, M23
540110011001000, M23
540110011001024, M23
540110011001023, M23
540110011001003, M23
540110011001004, M23
540110011001021, M23
540110011002054, M23
540110011001020, M23
540110011001017, M23
540110011001007, M23
540110011001006, M23
540110011002044, M23
540110011002051, M23
540110011002036, M23
540110011002039, M23
540110011002056, M23
540110011001008, M23
540110011001009, M23
540110011001011, M23
540110011002049, M23
540110011002050, M23
540110011001001, M23
540110011001018, M23
540110009002029, M23
540110011001019, M23
540110011002029, M23
540110011001025, M23
540110011002007, M23
540110011001026, M23
540110011001012, M23
540110009002038, M23
540110011002038, M23
540110009002033, M23
540110011002030, M23
540110009002037, M23
540110011001013, M23
540110010002022, M26
540110010003018, M26
540110010003033, M26
540110010003025, M26
540110010003022, M26
540110010002004, M26
540110010003017, M26
540110010002007, M26
540110010002021, M26
540110010002018, M26
540110010002020, M26
540110010003012, M26
540110010002017, M26
540110010002006, M26
540110010003024, M26
540110010003014, M26
540110010003016, M26
540110010002023, M26
540110010002034, M26
540110010002026, M26
540110010002025, M26
540110010002024, M26
540110010002033, M26
540110010003034, M26
540110010002035, M26
540110010002013, M26
540110010002019, M26
540110010003015, M26
540110010003039, M26
540110010003027, M26
540110010002005, M26
540110010002031, M26
540110010003023, M26
540110010002014, M26
540110010003013, M26
540110010003019, M26
540110010002027, M26
540110010002008, M26
540990051001040, M26
540990051001042, M26
540110010003011, M26
540990051001054, M26
540990051001044, M26
540990051001051, M26
540990051001045, M26
540110010003035, M26
540110010002029, M26
540110010002037, M26
540110010002036, M26
540110010002032, M26
540110010001034, M26
540110010003037, M26
540110010002015, M26
540990052002031, M24
540990052002045, M24
540990052002027, M24
540990052002044, M24
540990052002040, M24
540990052002052, M24
540990052002036, M24
540990052002030, M24
, M24
540990052002048, M24
540990052002035, M24
540990052002043, M24
540990052002050, M24
540990052002049, M24
540990052002051, M24
540990052002046, M24
540990052002042, M24
540990052002062, M24
540990052001009, M24
540990052002028, M24
540990052001004, M24
540990051001052, M24
540990052001010, M24
540990052001017, M24
540990052001005, M24
540990051001043, M24
540990051001041, M24
540990052002029, M24
540990052002007, M24
540990052001011, M24
540990052002034, M24
540990051001036, M24
540990051001038, M24
540990052001023, M29
540990052001016, M29
540990052001024, M29
540990052002038, M29
540990052001022, M29
540110010001014, M29
540990052001021, M29
540110010001010, M29
540110010001011, M29
540110010001032, M29
540110010001016, M29
540110010001015, M29
540990052001025, M29
540990052002011, M29
540990052002009, M29
540990052001020, M29
540990052002010, M29
540110010001008, M29
540990051001048, M29
540990051001068, M29
540110010001033, M29
540110010001013, M29
540110010001007, M29
540990052001014, M29
540990052001013, M29
540990052001019, M29
540990052001018, M29
540990052001015, M29
540110010001012, M29
540110010001009, M29
540990052001012, M29
540990052002037, M29
540990052001026, M29
540990052002008, M29
540990051001049, M29
