BlockID, Route
540110002002020, F27
540110002003074, F27
540110002003077, F27
540110001012041, F27
540110002003076, F27
540110001012016, F27
540110001012015, F27
540110002002032, F27
540110002003072, F27
540110002003078, F27
540110002002025, F27
540110002003069, F27
540110001012044, F27
540110002003075, F27
540110002003073, F27
540110002003080, F27
540110002002034, F27
540110002001036, F27
540110002002035, F27
540110002002021, F27
540110002001037, F27
540110002003070, F27
540110002003079, F27
540110002002018, F27
540110002002028, F27
540110002002024, F27
540110002002033, F27
540110001012040, F27
540110001012042, F27
540110001012013, F27
540110002002022, F27
540110002002019, F27
540110002002016, F27
540110002002031, F27
540110002002029, F27
540110001012043, F27
540110001012039, F27
540110002001035, F27
540110002001047, F27
540110002002017, F27
540110002003068, F27
540110001012029, F27
540110001012027, F27
540110001012033, F27
540110001012012, F27
540110001012008, F27
540110003001014, F29
540110003001024, F29
540110004001043, F29
540110004001042, F29
540110004001039, F29
540110003001025, F29
540110003002030, F29
540110003001004, F29
540110003001003, F29
540110004001031, F29
540110004001038, F29
540110003001002, F29
540110004001014, F29
540110003001022, F29
540110004001037, F29
540110004001030, F29
540110004001026, F29
540110004001018, F29
540110004001040, F29
540110004001044, F29
540110004001033, F29
540110004001032, F29
540110004001016, F29
540110004001002, F29
540110003001001, F29
540110004001003, F29
540110004001015, F29
540110004001035, F29
540110004001029, F29
540110004001036, F29
540110004001046, F29
540110004001017, F29
540110004001045, F29
540110003001043, F29
540110004001034, F29
540110004001027, F29
540110004001013, F29
540110003001005, F29
540110004001004, F29
540110003002010, F29
540110003001019, F29
540110004001012, F29
540110003001020, F29
540110003002011, F29
540110003001006, F29
540110004001023, F29
540110001011002, F23
540110001012005, F23
540110001012006, F23
540110001011009, F23
540110001012031, F23
540110001012001, F23
540110001011008, F23
540110001012035, F23
540110001012034, F23
540110001011010, F23
540110001012004, F23
540110001012002, F23
540110001012036, F23
540110001012026, F23
540110001011011, F23
540110001011012, F23
540110001012003, F23
540110001012037, F23
540110001012032, F23
540110001012025, F23
540110001012000, F23
540110001012007, F23
540110001012010, F23
540110001012011, F23
540110001012024, F23
540110001012038, F23
540110001012028, F23
540110001012030, F23
540110003002014, F25
540110003001011, F25
540110003001012, F25
540110003002022, F25
540110003002016, F25
540110003001031, F25
540110003002023, F25
540110003001017, F25
540110003002015, F25
540110003001010, F25
540110003001015, F25
540110003001035, F25
540110003001037, F25
540110003001032, F25
540110003001034, F25
540110003001038, F25
540110003001030, F25
540110003001027, F25
540110003002024, F25
540110003002029, F25
540110003001041, F25
540110003001007, F25
540110003001008, F25
540110003001029, F25
540110003001009, F25
540110003001013, F25
540110003001036, F25
540110003001016, F25
540110003001018, F25
540110003001042, F25
540110003001039, F25
540110003002028, F25
540110003002036, F25
540110003001033, F25
540110002001015, F26
540110002003061, F26
540110002003034, F26
540110002003046, F26
540110002003003, F26
540110002001030, F26
540110002003056, F26
540110002001046, F26
540110002001043, F26
540110002001044, F26
540110002003019, F26
540110002001045, F26
540110002001041, F26
540110002001012, F26
540110002003049, F26
540110002001009, F26
540110002003029, F26
540110002003042, F26
540110002003013, F26
540110002001013, F26
540110002001010, F26
540110002003036, F26
540110002001011, F26
540110002003040, F26
540110002003047, F26
540110002003057, F26
540110002003026, F26
540110002003022, F26
540110002003024, F26
540110002001016, F26
540110002001021, F26
540110002003052, F26
540110002003053, F26
540110002003060, F26
540110002001039, F26
540110002001040, F26
540110002003055, F26
540110002001024, F26
540110002001042, F26
540110002001032, F26
540110002001031, F26
540110002003058, F26
540110002001020, F26
540110002001019, F26
540110002001022, F26
540110002001017, F26
540110002003018, F26
540110002003031, F26
540110002001034, F26
540110002003043, F26
540110002003016, F26
540110002003028, F26
540110002003014, F26
540110002003065, F26
540110002003005, F26
540110002003051, F26
540110002001014, F26
540110002001033, F26
540110002003023, F26
540110002003059, F26
540110002003033, F26
540110002003030, F26
540110002003025, F26
540110002003037, F26
540110002003064, F26
540110002003032, F26
540110002003015, F26
540110002003044, F26
540110002003004, F26
540110002003017, F26
540110002003050, F26
540110002001023, F26
540110002003066, F26
540110002003054, F26
540110002001025, F26
540110002001029, F26
540110002002030, F26
540110004001021, F24
540110004002022, F24
540110003002039, F24
540110004001019, F24
540110004002021, F24
540110004002015, F24
540110004002013, F24
540110004001007, F24
540110004001008, F24
540110004002012, F24
540110004002018, F24
540110004002016, F24
540110003002040, F24
540110003002042, F24
540110004001006, F24
540110004001020, F24
540110004001010, F24
540110004001009, F24
540110004001025, F24
540110003002025, F24
540110004002014, F24
540110004002009, F24
540110004002010, F24
540110004002020, F24
540110004002008, F24
540110004002019, F24
540110004002017, F24
540110004001024, F24
540110004001022, F24
540110003002037, F24
540110003002035, F24
540110003002038, F24
540110003002027, F24
540110003002026, F24
540110004001011, F24
540110003001040, F24
540110004001005, F24
